<?xml version="1.0" encoding="iso-8859-1"?>
<!-- Generator: Adobe Illustrator 19.0.0, SVG Export Plug-In . SVG Version: 6.00 Build 0)  -->
<svg version="1.1" id="Layer_1" xmlns="http://www.w3.org/2000/svg" xmlns:xlink="http://www.w3.org/1999/xlink" x="0px" y="0px"
	 viewBox="0 0 512 512" style="enable-background:new 0 0 512 512;" xml:space="preserve">
<circle style="fill:#FF7061;" cx="254.373" cy="215.84" r="52.109"/>
<circle style="fill:#EF4C35;" cx="254.373" cy="215.84" r="41.702"/>
<g>
	<circle style="fill:#C62E1E;" cx="254.373" cy="215.84" r="28.583"/>
	<polygon style="fill:#C62E1E;" points="319.316,474.128 286.99,490.291 260.199,503.686 116.112,332.917 218.329,321.836 
		234.67,346.479 	"/>
</g>
<path style="fill:#EF4C35;" d="M319.316,474.128l-21.826,10.913l-10.499,5.25L200.403,387.67
	c-12.341-14.626-3.339-37.103,15.69-39.171l18.576-2.019l8.352,12.607L319.316,474.128z"/>
<polygon style="fill:#C62E1E;" points="98.708,334.699 73.661,345.465 56.996,352.625 27.024,290.219 68.894,268.876 78.28,289.599 
	"/>
<path style="fill:#EF4C35;" d="M98.708,334.699l-25.047,10.765l-11.74-24.455c-4.946-10.304-0.768-22.673,9.413-27.868l6.946-3.544
	L98.708,334.699z"/>
<polygon style="fill:#AEB9CC;" points="263.459,316.892 226.416,320.891 98.708,334.699 81.412,299.724 65.318,267.172 
	177.375,148.427 "/>
<path style="fill:#C8D0E2;" d="M226.787,320.519L99.079,334.328l-17.296-34.975l54.636-57.9
	c15.803-16.748,43.426-12.798,53.904,7.706L226.787,320.519z"/>
<path d="M284.254,98.687l-5.274,13.801c28.368,10.841,51.479,31.784,65.072,58.969c13.753,27.502,16.549,58.882,7.872,88.363
	l14.174,4.17c9.735-33.077,6.598-68.286-8.832-99.141C342.014,134.348,316.084,110.852,284.254,98.687z"/>
<path d="M292.987,49.53l-6.358,13.337c40.49,19.301,72.523,50.761,92.636,90.981c20.312,40.617,26.18,85.534,16.972,129.895
	l14.467,3.003c9.891-47.647,3.588-95.887-18.223-139.506C370.88,104.049,336.477,70.261,292.987,49.53z"/>
<path d="M303.192,0l-6.931,13.049c51.817,27.521,93.125,69.905,119.461,122.568c26.456,52.906,35.543,111.64,26.278,169.852
	l14.591,2.322c9.752-61.278,0.189-123.1-27.655-178.783C401.219,73.582,357.737,28.972,303.192,0z"/>
<polygon style="fill:#AEB9CC;" points="309.476,321.344 289.383,331.794 272.373,340.639 166.984,128.393 201.122,110.585 
	212.567,132.855 "/>
<path style="fill:#C8D0E2;" d="M309.476,321.344l-20.093,10.45l-85.509-172.215c-4.861-9.789-0.996-21.668,8.694-26.723l0,0
	L309.476,321.344z"/>
<path d="M255.574,323.669l12.903,25.802l47.656-23.831l-28.441-56.875c11.649-7.642,20.348-18.883,24.822-32.303
	c5.259-15.781,4.058-32.666-3.382-47.543c-14.239-28.478-47.497-41.27-76.742-30.745l-28.443-56.878l-47.656,23.831l11.944,23.884
	L55.956,267.238l-40.664,20.335l38.466,76.921l45.041-22.524l15.396-1.798L258.129,512l67.716-33.864l-99.369-151.07
	L255.574,323.669z M295.917,195.528c5.675,11.348,6.59,24.227,2.579,36.263c-3.222,9.668-9.317,17.856-17.469,23.648l-41.974-83.938
	C260.945,164.534,285.326,174.349,295.917,195.528z M176.112,131.733l21.228-10.615l98.97,197.915l-21.228,10.615l-3.901-7.802l0,0
	l-92.126-184.231l-0.001,0.001L176.112,131.733z M175.262,163.066l2.235,4.469l71.049,142.08l-147.601,17.23L72.929,270.82
	L175.262,163.066z M35.113,294.179l26.381-13.192l21.96,43.916l3.289,6.577l-26.38,13.191L35.113,294.179z M304.362,472.361
	l-42.404,21.204l-8.642-10.317l20.993-10.497l-6.608-13.214l-24.137,12.069l-8.28-9.885l19.972-9.987l-6.608-13.214l-23.116,11.559
	l-8.28-9.885l20.659-10.331l-6.608-13.214L207.5,428.552l-8.28-9.885l20.6-10.301l-6.608-13.214l-23.743,11.872l-57.718-68.904
	l78.302-9.14L304.362,472.361z"/>
<rect x="108.853" y="243.242" transform="matrix(-0.725 -0.6887 0.6887 -0.725 27.2845 513.9436)" width="14.773" height="16.565"/>
<polygon points="168.712,207.014 176.403,222.395 189.617,215.787 172.505,181.565 129.733,226.602 140.446,236.776 "/>
<rect x="217.497" y="61.47" width="14.774" height="16.33"/>
<rect x="356.876" y="312.956" width="14.774" height="16.33"/>
<rect x="334.262" y="357.436" width="14.774" height="16.331"/>
<rect x="431.899" y="339.205" width="14.774" height="16.33"/>
<rect x="481.935" y="148.411" width="14.774" height="16.33"/>
<rect x="411.383" y="44.431" width="14.774" height="16.33"/>
<rect x="466.304" y="69.635" width="14.774" height="16.33"/>
<rect x="481.935" y="6.524" width="14.774" height="16.33"/>
<rect x="396.619" y="380.227" width="14.774" height="16.33"/>
<rect x="460.798" y="436.96" width="14.774" height="16.33"/>
<rect x="377.747" y="472.654" width="14.774" height="16.33"/>
<rect x="230.508" y="11.522" width="14.774" height="16.33"/>
<rect x="98.477" y="95.145" width="14.774" height="16.331"/>
<rect x="151.663" y="36.264" width="14.774" height="16.33"/>
<rect x="42.201" y="19.687" width="14.774" height="16.33"/>
<g>
</g>
<g>
</g>
<g>
</g>
<g>
</g>
<g>
</g>
<g>
</g>
<g>
</g>
<g>
</g>
<g>
</g>
<g>
</g>
<g>
</g>
<g>
</g>
<g>
</g>
<g>
</g>
<g>
</g>
</svg>
